…
## Rows: 22 Columns: 4
## ── Column specification ──────────────────────────────────────────────────
## Delimiter: ","
## dbl (4): id, time, bmi, satis
## 
## ℹ Use `spec()` to retrieve the full column specification for this data.
## ℹ Specify the column types or set `show_col_types = FALSE` to quiet this message.

long1

## # A tibble: 22 × 4
##       id  time   bmi satis
##    <dbl> <dbl> <dbl> <dbl>
##  1     1     1  28       6
##  2     1     2  27.6     7
##  3     1     3  27.4     8
##  4     2     1  33.4     7
##  5     2     2  33.5     7
##  6     2     3  33.2     6
##  7     3     1  23.4     8
##  8     3     2  23.3     9
##  9     3     3  24.5     8
## 10     4     1  25.6     6
## # ℹ 12 more rows
…
